{
  "ability": "https://pokeapi.co/api/v2/ability/",
  "berry": "https://pokeapi.co/api/v2/berry/",
  "berry-firmness": "https://pokeapi.co/api/v2/berry-firmness/",
  "berry-flavor": "https://pokeapi.co/api/v2/berry-flavor/",
  "characteristic": "https://pokeapi.co/api/v2/characteristic/",
  "contest-effect": "https://pokeapi.co/api/v2/contest-effect/",
  "contest-type": "https://pokeapi.co/api/v2/contest-type/",
  "egg-group": "https://pokeapi.co/api/v2/egg-group/",
  "encounter-condition": "https://pokeapi.co/api/v2/encounter-condition/",
  "encounter-condition-value": "https://pokeapi.co/api/v2/encounter-condition-value/",
  "encounter-method": "https://pokeapi.co/api/v2/encounter-method/",
  "evolution-chain": "https://pokeapi.co/api/v2/evolution-chain/",
  "evolution-trigger": "https://pokeapi.co/api/v2/evolution-trigger/",
  "gender": "https://pokeapi.co/api/v2/gender/",
  "generation": "https://pokeapi.co/api/v2/generation/",
  "growth-rate": "https://pokeapi.co/api/v2/growth-rate/",
  "item": "https://pokeapi.co/api/v2/item/",
  "item-attribute": "https://pokeapi.co/api/v2/item-attribute/",
  "item-category": "https://pokeapi.co/api/v2/item-category/",
  "item-fling-effect": "https://pokeapi.co/api/v2/item-fling-effect/",
  "item-pocket": "https://pokeapi.co/api/v2/item-pocket/",
  "language": "https://pokeapi.co/api/v2/language/",
  "location": "https://pokeapi.co/api/v2/location/",
  "location-area": "https://pokeapi.co/api/v2/location-area/",
  "machine": "https://pokeapi.co/api/v2/machine/",
  "move": "https://pokeapi.co/api/v2/move/",
  "move-ailment": "https://pokeapi.co/api/v2/move-ailment/",
  "move-battle-style": "https://pokeapi.co/api/v2/move-battle-style/",
  "move-category": "https://pokeapi.co/api/v2/move-category/",
  "move-damage-class": "https://pokeapi.co/api/v2/move-damage-class/",
  "move-learn-method": "https://pokeapi.co/api/v2/move-learn-method/",
  "move-target": "https://pokeapi.co/api/v2/move-target/",
  "nature": "https://pokeapi.co/api/v2/nature/",
  "pal-park-area": "https://pokeapi.co/api/v2/pal-park-area/",
  "pokeathlon-stat": "https://pokeapi.co/api/v2/pokeathlon-stat/",
  "pokedex": "https://pokeapi.co/api/v2/pokedex/",
  "pokemon": "https://pokeapi.co/api/v2/pokemon/",
  "pokemon-color": "https://pokeapi.co/api/v2/pokemon-color/",
  "pokemon-form": "https://pokeapi.co/api/v2/pokemon-form/",
  "pokemon-habitat": "https://pokeapi.co/api/v2/pokemon-habitat/",
  "pokemon-shape": "https://pokeapi.co/api/v2/pokemon-shape/",
  "pokemon-species": "https://pokeapi.co/api/v2/pokemon-species/",
  "region": "https://pokeapi.co/api/v2/region/",
  "stat": "https://pokeapi.co/api/v2/stat/",
  "super-contest-effect": "https://pokeapi.co/api/v2/super-contest-effect/",
  "type": "https://pokeapi.co/api/v2/type/",
  "version": "https://pokeapi.co/api/v2/version/",
  "version-group": "https://pokeapi.co/api/v2/version-group/"
}

{
  "count": 1279,
  "next": "https://pokeapi.co/api/v2/pokemon/?offset=100&limit=50",
  "previous": "https://pokeapi.co/api/v2/pokemon/?offset=0&limit=50",
  "results": [
    {
      "name": "dugtrio",
      "url": "https://pokeapi.co/api/v2/pokemon/51/"
    },
    {
      "name": "meowth",
      "url": "https://pokeapi.co/api/v2/pokemon/52/"
    },
    {
      "name": "persian",
      "url": "https://pokeapi.co/api/v2/pokemon/53/"
    },
    {
      "name": "psyduck",
      "url": "https://pokeapi.co/api/v2/pokemon/54/"
    },
    {
      "name": "golduck",
      "url": "https://pokeapi.co/api/v2/pokemon/55/"
    },
    {
      "name": "mankey",
      "url": "https://pokeapi.co/api/v2/pokemon/56/"
    },
    {
      "name": "primeape",
      "url": "https://pokeapi.co/api/v2/pokemon/57/"
    },
    {
      "name": "growlithe",
      "url": "https://pokeapi.co/api/v2/pokemon/58/"
    },
    {
      "name": "arcanine",
      "url": "https://pokeapi.co/api/v2/pokemon/59/"
    },
    {
      "name": "poliwag",
      "url": "https://pokeapi.co/api/v2/pokemon/60/"
    },
    {
      "name": "poliwhirl",
      "url": "https://pokeapi.co/api/v2/pokemon/61/"
    },
    {
      "name": "poliwrath",
      "url": "https://pokeapi.co/api/v2/pokemon/62/"
    },
    {
      "name": "abra",
      "url": "https://pokeapi.co/api/v2/pokemon/63/"
    },
    {
      "name": "kadabra",
      "url": "https://pokeapi.co/api/v2/pokemon/64/"
    },
    {
      "name": "alakazam",
      "url": "https://pokeapi.co/api/v2/pokemon/65/"
    },
    {
      "name": "machop",
      "url": "https://pokeapi.co/api/v2/pokemon/66/"
    },
    {
      "name": "machoke",
      "url": "https://pokeapi.co/api/v2/pokemon/67/"
    },
    {
      "name": "machamp",
      "url": "https://pokeapi.co/api/v2/pokemon/68/"
    },
    {
      "name": "bellsprout",
      "url": "https://pokeapi.co/api/v2/pokemon/69/"
    },
    {
      "name": "weepinbell",
      "url": "https://pokeapi.co/api/v2/pokemon/70/"
    },
    {
      "name": "victreebel",
      "url": "https://pokeapi.co/api/v2/pokemon/71/"
    },
    {
      "name": "tentacool",
      "url": "https://pokeapi.co/api/v2/pokemon/72/"
    },
    {
      "name": "tentacruel",
      "url": "https://pokeapi.co/api/v2/pokemon/73/"
    },
    {
      "name": "geodude",
      "url": "https://pokeapi.co/api/v2/pokemon/74/"
    },
    {
      "name": "graveler",
      "url": "https://pokeapi.co/api/v2/pokemon/75/"
    },
    {
      "name": "golem",
      "url": "https://pokeapi.co/api/v2/pokemon/76/"
    },
    {
      "name": "ponyta",
      "url": "https://pokeapi.co/api/v2/pokemon/77/"
    },
    {
      "name": "rapidash",
      "url": "https://pokeapi.co/api/v2/pokemon/78/"
    },
    {
      "name": "slowpoke",
      "url": "https://pokeapi.co/api/v2/pokemon/79/"
    },
    {
      "name": "slowbro",
      "url": "https://pokeapi.co/api/v2/pokemon/80/"
    },
    {
      "name": "magnemite",
      "url": "https://pokeapi.co/api/v2/pokemon/81/"
    },
    {
      "name": "magneton",
      "url": "https://pokeapi.co/api/v2/pokemon/82/"
    },
    {
      "name": "farfetchd",
      "url": "https://pokeapi.co/api/v2/pokemon/83/"
    },
    {
      "name": "doduo",
      "url": "https://pokeapi.co/api/v2/pokemon/84/"
    },
    {
      "name": "dodrio",
      "url": "https://pokeapi.co/api/v2/pokemon/85/"
    },
    {
      "name": "seel",
      "url": "https://pokeapi.co/api/v2/pokemon/86/"
    },
    {
      "name": "dewgong",
      "url": "https://pokeapi.co/api/v2/pokemon/87/"
    },
    {
      "name": "grimer",
      "url": "https://pokeapi.co/api/v2/pokemon/88/"
    },
    {
      "name": "muk",
      "url": "https://pokeapi.co/api/v2/pokemon/89/"
    },
    {
      "name": "shellder",
      "url": "https://pokeapi.co/api/v2/pokemon/90/"
    },
    {
      "name": "cloyster",
      "url": "https://pokeapi.co/api/v2/pokemon/91/"
    },
    {
      "name": "gastly",
      "url": "https://pokeapi.co/api/v2/pokemon/92/"
    },
    {
      "name": "haunter",
      "url": "https://pokeapi.co/api/v2/pokemon/93/"
    },
    {
      "name": "gengar",
      "url": "https://pokeapi.co/api/v2/pokemon/94/"
    },
    {
      "name": "onix",
      "url": "https://pokeapi.co/api/v2/pokemon/95/"
    },
    {
      "name": "drowzee",
      "url": "https://pokeapi.co/api/v2/pokemon/96/"
    },
    {
      "name": "hypno",
      "url": "https://pokeapi.co/api/v2/pokemon/97/"
    },
    {
      "name": "krabby",
      "url": "https://pokeapi.co/api/v2/pokemon/98/"
    },
    {
      "name": "kingler",
      "url": "https://pokeapi.co/api/v2/pokemon/99/"
    },
    {
      "name": "voltorb",
      "url": "https://pokeapi.co/api/v2/pokemon/100/"
    }
  ]
}